^D:\HIEN_CG\16520371_CG\16520371_CG\DEBUG\BEZIER.OBJ|D:\HIEN_CG\16520371_CG\16520371_CG\DEBUG\CIRCLE.OBJ|D:\HIEN_CG\16520371_CG\16520371_CG\DEBUG\CLIPPING.OBJ|D:\HIEN_CG\16520371_CG\16520371_CG\DEBUG\DRAWPOLYGON.OBJ|D:\HIEN_CG\16520371_CG\16520371_CG\DEBUG\ELLIPSE.OBJ|D:\HIEN_CG\16520371_CG\16520371_CG\DEBUG\FILLCOLOR.OBJ|D:\HIEN_CG\16520371_CG\16520371_CG\DEBUG\LINE.OBJ|D:\HIEN_CG\16520371_CG\16520371_CG\DEBUG\MAIN.OBJ|D:\HIEN_CG\16520371_CG\16520371_CG\DEBUG\PARAPOL.OBJ
C:\WINDOWS\GLOBALIZATION\SORTING\SORTDEFAULT.NLS
D:\SDL\LIB\WIN32\SDL2.LIB
D:\SDL\LIB\WIN32\SDL2MAIN.LIB
C:\PROGRAM FILES (X86)\WINDOWS KITS\8.1\LIB\WINV6.3\UM\X86\KERNEL32.LIB
C:\PROGRAM FILES (X86)\WINDOWS KITS\8.1\LIB\WINV6.3\UM\X86\USER32.LIB
C:\PROGRAM FILES (X86)\WINDOWS KITS\8.1\LIB\WINV6.3\UM\X86\GDI32.LIB
C:\PROGRAM FILES (X86)\WINDOWS KITS\8.1\LIB\WINV6.3\UM\X86\WINSPOOL.LIB
C:\PROGRAM FILES (X86)\WINDOWS KITS\8.1\LIB\WINV6.3\UM\X86\COMDLG32.LIB
C:\PROGRAM FILES (X86)\WINDOWS KITS\8.1\LIB\WINV6.3\UM\X86\ADVAPI32.LIB
C:\PROGRAM FILES (X86)\WINDOWS KITS\8.1\LIB\WINV6.3\UM\X86\SHELL32.LIB
C:\PROGRAM FILES (X86)\WINDOWS KITS\8.1\LIB\WINV6.3\UM\X86\OLE32.LIB
C:\PROGRAM FILES (X86)\WINDOWS KITS\8.1\LIB\WINV6.3\UM\X86\OLEAUT32.LIB
C:\PROGRAM FILES (X86)\WINDOWS KITS\8.1\LIB\WINV6.3\UM\X86\UUID.LIB
C:\PROGRAM FILES (X86)\WINDOWS KITS\8.1\LIB\WINV6.3\UM\X86\ODBC32.LIB
C:\PROGRAM FILES (X86)\WINDOWS KITS\8.1\LIB\WINV6.3\UM\X86\ODBCCP32.LIB
D:\HIEN_CG\16520371_CG\16520371_CG\DEBUG\BEZIER.OBJ
D:\HIEN_CG\16520371_CG\16520371_CG\DEBUG\CIRCLE.OBJ
D:\HIEN_CG\16520371_CG\16520371_CG\DEBUG\CLIPPING.OBJ
D:\HIEN_CG\16520371_CG\16520371_CG\DEBUG\DRAWPOLYGON.OBJ
D:\HIEN_CG\16520371_CG\16520371_CG\DEBUG\ELLIPSE.OBJ
D:\HIEN_CG\16520371_CG\16520371_CG\DEBUG\FILLCOLOR.OBJ
D:\HIEN_CG\16520371_CG\16520371_CG\DEBUG\LINE.OBJ
D:\HIEN_CG\16520371_CG\16520371_CG\DEBUG\MAIN.OBJ
D:\HIEN_CG\16520371_CG\16520371_CG\DEBUG\PARAPOL.OBJ
C:\WINDOWS\SYSTEM32\TZRES.DLL
C:\PROGRAM FILES (X86)\MICROSOFT VISUAL STUDIO 14.0\VC\LIB\MSVCPRTD.LIB
C:\PROGRAM FILES (X86)\MICROSOFT VISUAL STUDIO 14.0\VC\LIB\MSVCRTD.LIB
C:\PROGRAM FILES (X86)\MICROSOFT VISUAL STUDIO 14.0\VC\LIB\OLDNAMES.LIB
C:\PROGRAM FILES (X86)\MICROSOFT VISUAL STUDIO 14.0\VC\LIB\VCRUNTIMED.LIB
C:\PROGRAM FILES (X86)\WINDOWS KITS\10\LIB\10.0.10240.0\UCRT\X86\UCRTD.LIB
